<svg width="181" height="313" viewBox="0 0 181 313" fill="none" xmlns="http://www.w3.org/2000/svg">
<path d="M132.743 255.236C96.5393 225.039 40.2814 140.045 104.881 41.6477" stroke="#10B1B1" stroke-width="150"/>
</svg>
