<svg width="93" height="40" viewBox="0 0 93 40" fill="none" xmlns="http://www.w3.org/2000/svg">
<g clip-path="url(#clip0_192_7803)">
<path fill-rule="evenodd" clip-rule="evenodd" d="M10.1057 8.73193C7.90966 8.73193 6.23646 9.51625 5.34757 10.745V9.17638H0.354103V25.7777H5.34757V16.7319C5.34757 14.379 6.60247 13.3071 8.43254 13.3071C10.0273 13.3071 11.3345 14.2744 11.3345 16.3398V25.8038H16.328V15.6077C16.328 11.111 13.4783 8.73193 10.1057 8.73193ZM23.2822 15.7646C23.7528 14.0653 25.0077 13.1502 26.9162 13.1502C28.4064 13.1502 29.8966 13.8561 30.4456 15.7646H23.2822ZM26.9423 8.73193C21.6874 8.73193 18.0796 12.5489 18.0796 17.4901C18.0796 22.4313 21.609 26.2483 27.2822 26.2483C30.4456 26.2483 32.9031 25.0979 34.524 22.8234L30.524 20.5228C29.8704 21.2548 28.694 21.7777 27.3345 21.7777C25.5044 21.7777 23.9881 21.1764 23.3345 19.4509H35.1515C35.2822 18.8234 35.3606 18.1698 35.3606 17.464C35.3868 12.4705 31.7789 8.73193 26.9423 8.73193ZM58.0012 9.17638H54.9946L52.5894 18.0653L50.0012 9.17638H45.3476L42.7593 18.0653L40.3541 9.17638H35.0469L40.3541 25.7777H45.0077L47.6744 16.9149L50.341 25.7777H54.9946L58.0012 16.3659V9.17638Z" fill="#0F0F0F"/>
<path fill-rule="evenodd" clip-rule="evenodd" d="M34.7332 32.8105V39.9216L31.0992 36.3399V30.4053H38.3149V36.3399L34.7332 32.8105Z" fill="#00AB95"/>
<path fill-rule="evenodd" clip-rule="evenodd" d="M34.7332 39.9217V32.8105L38.3149 36.34L34.7332 39.9217Z" fill="#FDB913"/>
<path fill-rule="evenodd" clip-rule="evenodd" d="M49.8704 31.2939L50.9685 34.039V31.2939H51.7267V35.1632H50.6548L49.5306 32.2873V35.1632H48.7724V31.2939H49.8704ZM59.2822 31.2939L59.9358 33.9867L60.5894 31.2939H61.8704V35.1632H61.0861V32.1043L60.2757 35.1632H59.5175L58.7332 32.1305V35.1632H57.9489V31.2939H59.2822ZM64.6678 31.2939C64.9816 31.32 65.2691 31.503 65.3737 31.7906C65.5044 32.1566 65.5044 32.6795 65.243 32.9932C65.1123 33.1239 64.9293 33.2024 64.694 33.2547C64.7463 33.2547 64.8247 33.2808 64.9031 33.3069C65.1384 33.3592 65.2953 33.4638 65.3737 33.6468C65.5306 34.0128 65.426 34.4834 65.5044 34.9017L65.5567 35.1632H64.7463C64.6155 34.7449 64.7724 34.1435 64.5894 33.7775C64.4587 33.5422 64.0927 33.5684 63.8312 33.5684V35.1632H63.0469V31.2939C63.0469 31.2939 64.3541 31.2677 64.6678 31.2939ZM63.8312 31.869V32.9671C63.8312 32.9671 64.3541 33.0455 64.5633 32.8102C64.694 32.6272 64.6678 32.2873 64.6155 32.0782C64.4587 31.8167 64.0927 31.869 63.8312 31.869ZM42.9685 31.2939L44.0404 35.1632H43.2038L42.9685 34.3004H41.8182L41.5829 35.1632H40.7985L41.8704 31.2939H42.9685ZM42.3933 31.9998L42.0012 33.7252H42.8116L42.4195 32.0782L42.3933 31.9998ZM46.9423 31.3462C47.1776 31.3723 47.4391 31.6076 47.5175 31.869C47.5959 32.2089 47.5959 32.6011 47.3606 32.8886C47.2561 33.0194 47.0992 33.0717 46.9423 33.1501C47.0731 33.1762 47.1776 33.2285 47.3084 33.2808C47.6744 33.5161 47.7005 34.0128 47.6482 34.4311C47.5959 34.7449 47.2822 35.0586 46.9946 35.1109C46.8639 35.137 46.707 35.1632 46.5763 35.1632H45.0077V31.2939C45.5567 31.2939 46.4979 31.2677 46.9423 31.3462ZM46.341 32.8625C46.6286 32.8625 46.707 32.6795 46.7593 32.5488C46.8116 32.3658 46.7855 32.1305 46.6025 31.9736L46.524 31.9213C46.4195 31.8429 46.0273 31.869 45.7659 31.869V32.8625H46.341ZM45.7659 33.4638V34.588C46.0796 34.5618 46.4195 34.6664 46.6548 34.4834C46.8639 34.3004 46.8378 33.9605 46.7593 33.7252C46.6025 33.3854 46.1057 33.4638 45.7659 33.4638ZM52.9816 33.4115L53.5044 32.9148L53.0077 32.4181L52.4848 32.9148L52.9816 33.4115ZM56.0142 31.2939L57.0861 35.1632H56.2495L56.0142 34.3004H54.8639L54.6286 35.1632H53.8443L54.9162 31.2939H56.0142ZM55.4652 31.9998L55.0731 33.7252H55.8835L55.4914 32.0782C55.4652 32.0782 55.4652 31.9998 55.4652 31.9998ZM69.06 31.7906C69.3214 32.3658 69.2691 33.1239 69.2691 33.7775C69.2691 34.0913 69.1907 34.7187 68.7985 35.0063C68.5371 35.1893 68.1972 35.2416 67.8312 35.2416C67.3606 35.2416 66.8901 35.0586 66.6809 34.6141C66.4718 34.1174 66.524 33.4115 66.524 32.7841C66.524 32.3396 66.5763 31.7645 66.9946 31.4507C67.4129 31.1893 68.1188 31.1893 68.5894 31.3723C68.7724 31.4507 68.9554 31.6076 69.06 31.7906ZM68.4064 32.5488C68.3802 31.7906 68.0142 31.8167 67.8574 31.8167C67.7005 31.8167 67.4129 31.8952 67.3868 32.5488V33.9083C67.4391 34.588 67.5959 34.7187 67.9097 34.7187C68.2234 34.7187 68.4064 34.588 68.4064 33.856C68.4064 33.8298 68.4064 32.5488 68.4064 32.5488ZM0.406391 35.2154H0.903123V32.1305H0.406391V35.2154ZM0.354103 31.32H0.929267V30.771H0.354103V31.32ZM3.43907 35.2154V33.0717C3.43907 32.7318 3.3345 32.4703 2.89005 32.4703C2.34103 32.4703 2.2626 32.9671 2.2626 33.3854V35.2154H1.76587V32.7579C1.76587 32.5488 1.76587 32.3396 1.73972 32.1043H2.2626V32.4965H2.28874C2.49789 32.1566 2.70704 32.0259 3.12535 32.0259C3.77894 32.0259 3.96195 32.4181 3.96195 33.0455V35.1893L3.43907 35.2154ZM4.82469 35.2154H5.32142V32.1305H4.82469V35.2154ZM4.7724 31.32H5.34757V30.771H4.7724V31.32ZM6.23646 32.1305V31.5292L6.73319 31.2939V32.1043H7.41293V32.4965H6.73319V34.3788C6.73319 34.588 6.73319 34.8233 7.20378 34.8233C7.22992 34.8233 7.30835 34.8233 7.43907 34.7971V35.1893C7.28221 35.2154 7.0992 35.2416 6.94234 35.2416C6.47175 35.2416 6.2626 35.0586 6.2626 34.6926V32.4965H5.76587V32.1043L6.23646 32.1305ZM7.88351 35.2154H8.38025V32.1305H7.88351V35.2154ZM7.85737 31.32H8.40639V30.771H7.83123L7.85737 31.32ZM9.71358 34.3004C9.71358 34.588 9.87044 34.8756 10.2103 34.8756C10.524 34.8756 10.8901 34.6926 10.8378 33.6991C10.341 33.673 9.71358 33.6468 9.71358 34.3004ZM10.8378 34.771C10.6809 35.137 10.4456 35.2677 10.0534 35.2677C9.39985 35.2677 9.21685 34.8494 9.21685 34.2481C9.21685 33.3069 10.1319 33.2808 10.8378 33.2808C10.8378 32.8625 10.8639 32.4181 10.3149 32.4181C9.97502 32.4181 9.79201 32.6533 9.8443 32.9671H9.29528C9.32142 32.2873 9.68744 32.0259 10.341 32.0259C11.1253 32.0259 11.3345 32.4442 11.3345 32.9671V34.4573C11.3345 34.6926 11.3606 34.954 11.3868 35.1893H10.8378V34.771ZM12.3541 32.1305V31.5292L12.8508 31.2939V32.1043H13.5306V32.4965H12.8508V34.3788C12.8508 34.588 12.8508 34.8233 13.3214 34.8233C13.3476 34.8233 13.426 34.8233 13.5567 34.7971V35.1893C13.3999 35.2154 13.2168 35.2416 13.06 35.2416C12.5894 35.2416 12.3802 35.0586 12.3802 34.6926V32.4965H11.8835V32.1043L12.3541 32.1305ZM15.7005 33.4377C15.7005 32.5488 15.4391 32.4181 15.0731 32.4181C14.7593 32.4181 14.4979 32.5749 14.4979 33.4377H15.7005ZM14.4979 33.8298C14.4979 34.6926 14.7332 34.8756 15.1253 34.8756C15.4652 34.8756 15.6482 34.588 15.6744 34.3004H16.2234C16.2234 34.9801 15.8051 35.2939 15.1515 35.2939C14.4979 35.2939 13.975 35.0847 13.975 33.7252C13.975 32.8102 14.0796 32.0782 15.1515 32.0782C16.0404 32.0782 16.2495 32.5488 16.2495 33.5945V33.856L14.4979 33.8298ZM18.1319 32.4703C17.5829 32.4703 17.5306 32.8886 17.5306 33.7252C17.5306 34.1958 17.5306 34.8756 18.158 34.8756C18.7332 34.8756 18.7332 34.1697 18.7332 33.5422C18.707 33.1239 18.6809 32.4703 18.1319 32.4703ZM18.707 30.7971H19.2038V35.2154H18.707V34.8494C18.524 35.137 18.3149 35.2677 18.0012 35.2677C17.5044 35.2677 17.0077 35.0586 17.0077 33.7252C17.0077 32.9671 17.0338 32.0782 18.0273 32.0782C18.3149 32.0782 18.524 32.2089 18.707 32.4442H18.7332V30.7971H18.707ZM22.6025 34.8494C23.2299 34.8494 23.2299 34.1697 23.2299 33.6991C23.2299 32.8625 23.1515 32.4442 22.6286 32.4442C22.0796 32.4442 22.0535 33.0978 22.0535 33.5161C22.0273 34.0128 21.975 34.8494 22.6025 34.8494ZM22.0273 35.2154H21.5306V30.7971H22.0273V32.4442H22.0535C22.2365 32.2089 22.4456 32.0782 22.7332 32.0782C23.7267 32.0782 23.7528 32.9671 23.7528 33.7252C23.7528 35.0847 23.2561 35.2677 22.7593 35.2677C22.4456 35.2677 22.2103 35.137 22.0535 34.8494V35.2154H22.0273ZM25.4783 34.6403L26.2365 32.1305H26.7855L25.3737 36.3919H24.8508L25.1907 35.2154L24.145 32.1305H24.7201L25.4783 34.6403Z" fill="#8A8C8E"/>
<path fill-rule="evenodd" clip-rule="evenodd" d="M10.1057 8.73193C7.90966 8.73193 6.23646 9.51625 5.34757 10.745V9.17638H0.354103V25.7777H5.34757V16.7319C5.34757 14.379 6.60247 13.3071 8.43254 13.3071C10.0273 13.3071 11.3345 14.2744 11.3345 16.3398V25.8038H16.328V15.6077C16.328 11.111 13.4783 8.73193 10.1057 8.73193ZM23.2822 15.7646C23.7528 14.0653 25.0077 13.1502 26.9162 13.1502C28.4064 13.1502 29.8966 13.8561 30.4456 15.7646H23.2822ZM26.9423 8.73193C21.6874 8.73193 18.0796 12.5489 18.0796 17.4901C18.0796 22.4313 21.609 26.2483 27.2822 26.2483C30.4456 26.2483 32.9031 25.0979 34.524 22.8234L30.524 20.5228C29.8704 21.2548 28.694 21.7777 27.3345 21.7777C25.5044 21.7777 23.9881 21.1764 23.3345 19.4509H35.1515C35.2822 18.8234 35.3606 18.1698 35.3606 17.464C35.3868 12.4705 31.7789 8.73193 26.9423 8.73193ZM58.0012 9.17638H54.9946L52.5894 18.0653L50.0012 9.17638H45.3476L42.7593 18.0653L40.3541 9.17638H35.0469L40.3541 25.7777H45.0077L47.6744 16.9149L50.341 25.7777H54.9946L58.0012 16.3659V9.17638Z" fill="#171321"/>
<path d="M82.0012 20.6538C78.9685 20.6538 77.5044 18.0394 77.5044 13.1767C77.5044 8.31391 78.9685 5.69953 82.0012 5.69953C85.0338 5.69953 86.4979 8.31391 86.4979 13.1767C86.4979 18.0133 85.0338 20.6538 82.0012 20.6538ZM82.0012 0.0786133C75.4914 0.0786133 71.7528 5.3858 71.7528 13.1505C71.7528 20.9152 75.4914 26.2224 82.0012 26.2224C88.511 26.2224 92.2495 20.9152 92.2495 13.1505C92.2757 5.41195 88.511 0.0786133 82.0012 0.0786133ZM63.6744 0.601489C62.7593 2.66685 60.9554 3.79103 58.0012 3.79103V9.22894C58.341 9.22894 58.6809 9.22894 58.9946 9.2028C59.5175 9.17665 59.9881 9.12436 60.4064 9.04593C61.6613 8.81064 62.5763 8.34005 63.3606 7.52959V25.778H69.243V0.601489H63.6744Z" fill="#A2A1A6"/>
<path fill-rule="evenodd" clip-rule="evenodd" d="M34.7332 32.8105V39.9216L31.0992 36.3399V30.4053H38.3149V36.3399L34.7332 32.8105Z" fill="#A2A1A6"/>
<path fill-rule="evenodd" clip-rule="evenodd" d="M34.7332 39.9217V32.8105L38.3149 36.34L34.7332 39.9217Z" fill="#D1D0D3"/>
<path fill-rule="evenodd" clip-rule="evenodd" d="M49.8704 31.2944L50.9685 34.0395V31.2944H51.7267V35.1636H50.6548L49.5306 32.2878V35.1636H48.7724V31.2944H49.8704ZM59.2822 31.2944L59.9358 33.9872L60.5894 31.2944H61.8704V35.1636H61.0861V32.1048L60.2757 35.1636H59.5175L58.7332 32.131V35.1636H57.9489V31.2944H59.2822ZM64.6678 31.2944C64.9816 31.3205 65.2691 31.5035 65.3737 31.7911C65.5044 32.1571 65.5044 32.68 65.243 32.9937C65.1123 33.1244 64.9293 33.2029 64.694 33.2551C64.7463 33.2551 64.8247 33.2813 64.9031 33.3074C65.1384 33.3597 65.2953 33.4643 65.3737 33.6473C65.5306 34.0133 65.426 34.4839 65.5044 34.9022L65.5567 35.1636H64.7463C64.6155 34.7453 64.7724 34.144 64.5894 33.778C64.4587 33.5427 64.0927 33.5689 63.8312 33.5689V35.1636H63.0469V31.2944C63.0469 31.2944 64.3541 31.2682 64.6678 31.2944ZM63.8312 31.8695V32.9676C63.8312 32.9676 64.3541 33.046 64.5633 32.8107C64.694 32.6277 64.6678 32.2878 64.6155 32.0787C64.4587 31.8172 64.0927 31.8695 63.8312 31.8695ZM42.9685 31.2944L44.0404 35.1636H43.2038L42.9685 34.3009H41.8182L41.5829 35.1636H40.7985L41.8704 31.2944H42.9685ZM42.3933 32.0002L42.0012 33.7257H42.8116L42.4195 32.0787L42.3933 32.0002ZM46.9423 31.3466C47.1776 31.3728 47.4391 31.6081 47.5175 31.8695C47.5959 32.2094 47.5959 32.6016 47.3606 32.8891C47.2561 33.0199 47.0992 33.0721 46.9423 33.1506C47.0731 33.1767 47.1776 33.229 47.3084 33.2813C47.6744 33.5166 47.7005 34.0133 47.6482 34.4316C47.5959 34.7453 47.2822 35.0591 46.9946 35.1114C46.8639 35.1375 46.707 35.1636 46.5763 35.1636H45.0077V31.2944C45.5567 31.2944 46.4979 31.2682 46.9423 31.3466ZM46.341 32.863C46.6286 32.863 46.707 32.68 46.7593 32.5493C46.8116 32.3663 46.7855 32.131 46.6025 31.9741L46.524 31.9218C46.4195 31.8434 46.0273 31.8695 45.7659 31.8695V32.863H46.341ZM45.7659 33.4643V34.5885C46.0796 34.5623 46.4195 34.6669 46.6548 34.4839C46.8639 34.3009 46.8378 33.961 46.7593 33.7257C46.6025 33.3859 46.1057 33.4643 45.7659 33.4643ZM52.9816 33.412L53.5044 32.9153L53.0077 32.4185L52.4848 32.9153L52.9816 33.412ZM56.0142 31.2944L57.0861 35.1636H56.2495L56.0142 34.3009H54.8639L54.6286 35.1636H53.8443L54.9162 31.2944H56.0142ZM55.4652 32.0002L55.0731 33.7257H55.8835L55.4914 32.0787C55.4652 32.0787 55.4652 32.0002 55.4652 32.0002ZM69.06 31.7911C69.3214 32.3663 69.2691 33.1244 69.2691 33.778C69.2691 34.0917 69.1907 34.7192 68.7985 35.0068C68.5371 35.1898 68.1972 35.2421 67.8312 35.2421C67.3606 35.2421 66.8901 35.0591 66.6809 34.6146C66.4718 34.1179 66.524 33.412 66.524 32.7846C66.524 32.3401 66.5763 31.765 66.9946 31.4512C67.4129 31.1898 68.1188 31.1898 68.5894 31.3728C68.7724 31.4512 68.9554 31.6081 69.06 31.7911ZM68.4064 32.5493C68.3802 31.7911 68.0142 31.8172 67.8574 31.8172C67.7005 31.8172 67.4129 31.8957 67.3868 32.5493V33.9087C67.4391 34.5885 67.5959 34.7192 67.9097 34.7192C68.2234 34.7192 68.4064 34.5885 68.4064 33.8565C68.4064 33.8303 68.4064 32.5493 68.4064 32.5493ZM0.406391 35.2159H0.903123V32.131H0.406391V35.2159ZM0.354103 31.3205H0.929267V30.7715H0.354103V31.3205ZM3.43907 35.2159V33.0721C3.43907 32.7323 3.3345 32.4708 2.89005 32.4708C2.34103 32.4708 2.2626 32.9676 2.2626 33.3859V35.2159H1.76587V32.7584C1.76587 32.5493 1.76587 32.3401 1.73972 32.1048H2.2626V32.497H2.28874C2.49789 32.1571 2.70704 32.0264 3.12535 32.0264C3.77894 32.0264 3.96195 32.4185 3.96195 33.046V35.1898L3.43907 35.2159ZM4.82469 35.2159H5.32142V32.131H4.82469V35.2159ZM4.7724 31.3205H5.34757V30.7715H4.7724V31.3205ZM6.23646 32.131V31.5297L6.73319 31.2944V32.1048H7.41293V32.497H6.73319V34.3793C6.73319 34.5885 6.73319 34.8238 7.20378 34.8238C7.22992 34.8238 7.30835 34.8238 7.43907 34.7976V35.1898C7.28221 35.2159 7.0992 35.2421 6.94234 35.2421C6.47175 35.2421 6.2626 35.0591 6.2626 34.6931V32.497H5.76587V32.1048L6.23646 32.131ZM7.88351 35.2159H8.38025V32.131H7.88351V35.2159ZM7.85737 31.3205H8.40639V30.7715H7.83123L7.85737 31.3205ZM9.71358 34.3009C9.71358 34.5885 9.87044 34.8761 10.2103 34.8761C10.524 34.8761 10.8901 34.6931 10.8378 33.6996C10.341 33.6734 9.71358 33.6473 9.71358 34.3009ZM10.8378 34.7715C10.6809 35.1375 10.4456 35.2682 10.0534 35.2682C9.39985 35.2682 9.21685 34.8499 9.21685 34.2486C9.21685 33.3074 10.1319 33.2813 10.8378 33.2813C10.8378 32.863 10.8639 32.4185 10.3149 32.4185C9.97502 32.4185 9.79201 32.6538 9.8443 32.9676H9.29528C9.32142 32.2878 9.68744 32.0264 10.341 32.0264C11.1253 32.0264 11.3345 32.4447 11.3345 32.9676V34.4578C11.3345 34.6931 11.3606 34.9545 11.3868 35.1898H10.8378V34.7715ZM12.3541 32.131V31.5297L12.8508 31.2944V32.1048H13.5306V32.497H12.8508V34.3793C12.8508 34.5885 12.8508 34.8238 13.3214 34.8238C13.3476 34.8238 13.426 34.8238 13.5567 34.7976V35.1898C13.3999 35.2159 13.2168 35.2421 13.06 35.2421C12.5894 35.2421 12.3802 35.0591 12.3802 34.6931V32.497H11.8835V32.1048L12.3541 32.131ZM15.7005 33.4382C15.7005 32.5493 15.4391 32.4185 15.0731 32.4185C14.7593 32.4185 14.4979 32.5754 14.4979 33.4382H15.7005ZM14.4979 33.8303C14.4979 34.6931 14.7332 34.8761 15.1253 34.8761C15.4652 34.8761 15.6482 34.5885 15.6744 34.3009H16.2234C16.2234 34.9806 15.8051 35.2944 15.1515 35.2944C14.4979 35.2944 13.975 35.0852 13.975 33.7257C13.975 32.8107 14.0796 32.0787 15.1515 32.0787C16.0404 32.0787 16.2495 32.5493 16.2495 33.595V33.8565L14.4979 33.8303ZM18.1319 32.4708C17.5829 32.4708 17.5306 32.8891 17.5306 33.7257C17.5306 34.1963 17.5306 34.8761 18.158 34.8761C18.7332 34.8761 18.7332 34.1702 18.7332 33.5427C18.707 33.1244 18.6809 32.4708 18.1319 32.4708ZM18.707 30.7976H19.2038V35.2159H18.707V34.8499C18.524 35.1375 18.3149 35.2682 18.0012 35.2682C17.5044 35.2682 17.0077 35.0591 17.0077 33.7257C17.0077 32.9676 17.0338 32.0787 18.0273 32.0787C18.3149 32.0787 18.524 32.2094 18.707 32.4447H18.7332V30.7976H18.707ZM22.6025 34.8499C23.2299 34.8499 23.2299 34.1702 23.2299 33.6996C23.2299 32.863 23.1515 32.4447 22.6286 32.4447C22.0796 32.4447 22.0535 33.0983 22.0535 33.5166C22.0273 34.0133 21.975 34.8499 22.6025 34.8499ZM22.0273 35.2159H21.5306V30.7976H22.0273V32.4447H22.0535C22.2365 32.2094 22.4456 32.0787 22.7332 32.0787C23.7267 32.0787 23.7528 32.9676 23.7528 33.7257C23.7528 35.0852 23.2561 35.2682 22.7593 35.2682C22.4456 35.2682 22.2103 35.1375 22.0535 34.8499V35.2159H22.0273ZM25.4783 34.6408L26.2365 32.131H26.7855L25.3737 36.3924H24.8508L25.1907 35.2159L24.145 32.131H24.7201L25.4783 34.6408Z" fill="#A2A1A6"/>
</g>
<defs>
<clipPath id="clip0_192_7803">
<rect width="92.0261" height="40" fill="white" transform="translate(0.301819)"/>
</clipPath>
</defs>
</svg>
